module github.com/oussemalouati/dockerGolang

go 1.15

require (
	github.com/Pallinder/go-randomdata v0.0.0-20170410161340-8c3362a5e678 // indirect
	github.com/davecgh/go-spew v1.1.1-0.20170711183451-adab96458c51 // indirect
	github.com/dgrijalva/jwt-go v3.0.1-0.20170608005149-a539ee1a749a+incompatible
	github.com/gin-contrib/sse v0.0.0-20170109093832-22d885f9ecc7 // indirect
	github.com/gin-gonic/contrib v0.0.0-20170529062310-d4fc5a96cc0d // indirect
	github.com/gin-gonic/gin v1.1.5-0.20170716034208-93b3a0d7ec95
	github.com/go-playground/locales v0.11.2-0.20170327191450-1e5f1161c641 // indirect
	github.com/go-playground/universal-translator v0.16.1-0.20170327191703-71201497bace // indirect
	github.com/golang/protobuf v0.0.0-20170712042213-0a4f71a498b7 // indirect
	github.com/gosimple/slug v1.1.0
	github.com/jinzhu/gorm v0.0.0-20170703134954-2a1463811ee1
	github.com/jinzhu/inflection v0.0.0-20170102125226-1c35d901db3d // indirect
	github.com/json-iterator/go v0.0.0-20170711230430-b9dc3ebda73c // indirect
	github.com/mattn/go-isatty v0.0.2 // indirect
	github.com/mattn/go-sqlite3 v1.2.1-0.20170710140056-47fc4e5e9153 // indirect
	github.com/pmezard/go-difflib v1.0.0 // indirect
	github.com/rainycape/unidecode v0.0.0-20150907023854-cb7f23ec59be // indirect
	github.com/stretchr/objx v0.0.0-20150928122152-1a9d0bb9f541 // indirect
	github.com/stretchr/testify v1.1.5-0.20170714215325-05e8a0eda380
	github.com/ugorji/go v0.0.0-20170620104852-5efa3251c7f7 // indirect
	github.com/wangzitian0/golang-gin-starter-kit v0.0.0-20171103115606-9423bbefbc22
	golang.org/x/crypto v0.0.0-20201012173705-84dcc777aaee
	gopkg.in/gin-gonic/gin.v1 v1.1.5-0.20170702092826-d459835d2b07
	gopkg.in/go-playground/validator.v8 v8.18.1
	gopkg.in/stretchr/testify.v1 v1.1.4 // indirect
	gopkg.in/yaml.v2 v2.0.0-20170712054546-1be3d31502d6 // indirect
)
